[
  {"id":"Full Time","text":"Full Time"},
  {"id":"Part Time","text":"Part Time"},
  {"id":"Temporary","text":"Temporary"},
  {"id":"Casual","text":"Casual"},
  {"id":"Freelance","text":"Freelance"}
]